{
  "Titel": "Detailseite",
  "style": "assets/main.css",
  "rezepte": [
    {
      "name": "So Tasty Curry Huhn",
      "teaser": "Asiatisch, exotisch!",
      "tags": ["international", "warm"],
      "kategorien": ["Fleischgericht"],
      "bildname": "curryhuhn",
      "portionen": 2,
      "zutaten": [
          {
              "name": "Hähnchenbrust-Filet (Huhn)",
              "menge": 250,
              "einheit": "g"
            },
          {
              "name": "Eierspätzle",
              "menge": 4,
              "einheit": "Stück"
            },
          {
              "name": "China-Gemüse aus dem Glas",
              "menge": 150,
              "einheit": "g"
            },
          {
              "name": "Eier",
              "menge": 2,
              "einheit": "Stück"
            },
            {
                "name": "Öl zum Anbraten",
                "menge": 1,
                "einheit": "EL"
              }
        ]
    },
    {
      "name": "So Tasty Currywurst mit Kartoffelecken",
      "teaser": "Lecker Schmecker",
      "tags": ["einfach", "schnell", "warm"],
      "kategorien": ["Fastfood","Fleischgericht"],
      "bildname": "currywurst",
      "portionen": 1,
      "zutaten": [
          {
              "name": "Bockwürstchen",
              "menge": 3,
              "einheit": "Stück"
            },
          {
              "name": "Kartoffelecken",
              "menge": 200,
              "einheit": "g"
            },
          {
              "name": "Remoulade",
              "menge": 1,
              "einheit": ""
            },
          {
              "name": "Ketchup",
              "menge": 1,
              "einheit": ""
            },
            {
                "name": "Öl zum Anbraten",
                "menge": 1,
                "einheit": ""
              }
        ]
    },
    {
      "name": "So Tasty Ei in der Frikadelle Burger",
      "teaser": "Der etwas andere Burger",
      "tags": ["einfach", "schnell", "warm"],
      "kategorien": ["Fastfood","Fleischgericht"],
      "bildname": "eiburger",
      "portionen": 1,
      "zutaten": [
          {
              "name": "Hackfleisch",
              "menge": 250,
              "einheit": "g"
            },
          {
              "name": "Zwiebel",
              "menge": 1,
              "einheit": "Stück"
            },
          {
              "name": "Knoblauch",
              "menge": 1,
              "einheit": "Zehe"
            },
          {
              "name": "Eier",
              "menge": 3,
              "einheit": "Stück"
            },
            {
                "name": "Brötchen",
                "menge": 3,
                "einheit": "Stück"
              },
              {
                  "name": "Öl zum Anbraten",
                  "menge": 1,
                  "einheit": ""
                }
        ]
    },
    {
      "name": "So Tasty Garnelensalat",
      "teaser": "Einfach nur exquisit!",
      "tags": ["einfach", "schnell", "kalt"],
      "kategorien": ["Vegetarisch"],
      "bildname": "garnelensalat",
      "portionen": 2,
      "zutaten": [
          {
              "name": "Garnelensalat",
              "menge": 150,
              "einheit": "g"
            },
          {
              "name": "Salat",
              "menge": 150,
              "einheit": "g"
            },
          {
              "name": "Käse",
              "menge": 2,
              "einheit": "Scheiben"
            },
            {
                "name": "Dressing, Öl und Essig oder Fertigdressing",
                "menge": 1,
                "einheit": ""
              }
        ]
    },
    {
      "name": "So Tasty Selbstgemachte Kartoffelecken mit Grillgemüse",
      "teaser": "Knusprig, gut!",
      "tags": ["selbstgemacht", "warm"],
      "kategorien": ["Vegetarisch"],
      "bildname": "kartoffelecken",
      "portionen": 2,
      "zutaten": [
          {
              "name": "Kartoffeln",
              "menge": 4,
              "einheit": "Stück"
            },
          {
              "name": "Zucchini",
              "menge": 1,
              "einheit": "Stück"
            },
          {
              "name": "Paprika",
              "menge": 3,
              "einheit": "Stück"
            },
          {
              "name": "Zwiebel",
              "menge": 1,
              "einheit": "Stück"
            },
            {
                "name": "Weitere Gewürze, Cheyenne-Pfeffer, Kräuter der Provence",
                "menge": 1,
                "einheit": ""
              },
            {
                "name": "Öl zum Anbraten",
                "menge": 1,
                "einheit": ""
              }
        ]
    },
    {
      "name": "So Tasty Leberkäse mit Spiegelei Deluxe",
      "teaser": "Der besondere Gaumenschmaus",
      "tags": ["einfach", "schnell", "warm"],
      "kategorien": ["Fastfood","Fleischgericht"],
      "bildname": "leberkaese",
      "portionen": 2,
      "zutaten": [
          {
              "name": "Leberkäse",
              "menge": 1,
              "einheit": "Scheibe"
            },
          {
              "name": "Ei",
              "menge": 1,
              "einheit": "Stück"
            },
            {
                "name": "Zwiebel",
                "menge": 1,
                "einheit": "Stück"
              },
          {
              "name": "Toast",
              "menge": 1,
              "einheit": "Scheibe"
            },
          {
              "name": "Käse",
              "menge": 1,
              "einheit": "Scheibe"
            },
            {
                "name": "Öl zum Anbraten",
                "menge": 1,
                "einheit": ""
              }
        ]
    },
    {
      "name": "So Tasty Nutella Liqör",
      "teaser": "Aphrodisierend, aromatisch..",
      "tags": ["selbstgemacht","viel Zeit", "warm"],
      "kategorien": ["Dessert"],
      "bildname": "nutellaliqoer",
      "portionen": 6,
      "zutaten": [
          {
              "name": "Nutella",
              "menge": 400,
              "einheit": "g"
            },
          {
              "name": "Brauner Rum 40%",
              "menge": 700,
              "einheit": "ml"
            },
          {
              "name": "Puderzucker",
              "menge": 150,
              "einheit": "g"
            },
          {
              "name": "Schlagsahne",
              "menge": 400,
              "einheit": "ml"
            },
          {
              "name": "Vanilleschoten",
              "menge": 1,
              "einheit": "Stück"
            },
          {
              "name": "Instantkaffee-Pulver",
              "menge": 3,
              "einheit": "EL"
            },
          {
              "name": "Zimt",
              "menge": 1,
              "einheit": "TL"
            }
        ]
    },
    {
      "name": "So Tasty Einfacher gemischter Salat",
      "teaser": "Basic aber Hip!",
      "tags": ["einfach", "schnell", "kalt"],
      "kategorien": ["Vegetarisch"],
      "bildname": "salat",
      "portionen": 1,
      "zutaten": [
          {
              "name": "Eisbergsalat",
              "menge": 1,
              "einheit": "Stück"
            },
          {
              "name": "Tomaten",
              "menge": 4,
              "einheit": "Stück"
            },
          {
              "name": "Käse",
              "menge": 3,
              "einheit": "Scheiben"
            },
          {
              "name": "Toastbrot",
              "menge": 1,
              "einheit": "Scheibe"
            },
          {
              "name": "Öl und Essig",
              "menge": 1,
              "einheit": ""
            },
          {
              "name": "Salatpulver",
              "menge": 1,
              "einheit": ""
            }
        ]
    },
    {
      "name": "So Tasty Schwäbisches Gyros",
      "teaser": "Geschmackvolle, delikate Kombination!",
      "tags": ["international", "warm"],
      "kategorien": ["Fleischgericht"],
      "bildname": "sgyros",
      "portionen": 2,
      "zutaten": [
          {
              "name": "Gyros",
              "menge": 250,
              "einheit": "g"
            },
          {
              "name": "Spätzle",
              "menge": 250,
              "einheit": "g"
            },
          {
              "name": "Puderzucker",
              "menge": 150,
              "einheit": "g"
            },
          {
              "name": "Zwiebel",
              "menge": 1,
              "einheit": "Stück"
            },
          {
              "name": "Öl zum Anbraten",
              "menge": 1,
              "einheit": ""
            }
        ]
        },
    {
      "name": "So Tasty Spaghetti Carbonara",
      "teaser": "italienisch, deliziös!",
      "tags": ["international", "warm"],
      "kategorien": ["Nudeln", "Fleischgericht"],
      "bildname": "spaghetti",
      "portionen": 2,
      "zutaten": [
          {
              "name": "Spaghetti",
              "menge": 200,
              "einheit": "g"
            },
          {
              "name": "roher Schinken",
              "menge": 3,
              "einheit": "Scheiben"
            },
          {
              "name": "Zwiebel",
              "menge": 1,
              "einheit": "Stück"
            },
          {
              "name": "Schlagsahne",
              "menge": 250,
              "einheit": "ml"
            },
          {
              "name": "Käse",
              "menge": 2,
              "einheit": "Scheiben"
            },
          {
              "name": "Eier",
              "menge": 3,
              "einheit": "Stück"
            },
          {
              "name": "Öl zum Anbraten",
              "menge": 1,
              "einheit": ""
            }
        ]
    },
    {
      "name": "So Tasty Wurstsalat zu Knäckebrot",
      "teaser": "Der knackfrische",
      "tags": ["einfach","schnell", "kalt"],
      "kategorien": ["Fleischgericht"],
      "bildname": "wurstsalat",
      "portionen": 2,
      "zutaten": [
          {
              "name": "Fleischwurst",
              "menge": 125,
              "einheit": "g"
            },
          {
              "name": "Salatgurke",
              "menge": 1,
              "einheit": "Stück"
            },
          {
              "name": "Lauchzwiebeln",
              "menge": 50,
              "einheit": "g"
            },
          {
              "name": "Zwiebel",
              "menge": 1,
              "einheit": "Stück"
            },
          {
              "name": "Tomate",
              "menge": 1,
              "einheit": "Stück"
            },
          {
              "name": "Knäckebrot",
              "menge": 3,
              "einheit": "Stück"
            },
          {
              "name": "Frischkäse",
              "menge": 75,
              "einheit": "g"
            }
        ]
    },
    {
      "name": "So Tasty Zucchini als Spaghetti-Ersatz",
      "teaser": "Der vegane Konkurrent",
      "tags": ["einfach","schnell", "warm"],
      "kategorien": ["Vegetarisch"],
      "bildname": "zucchini",
      "portionen": 2,
      "zutaten": [
          {
              "name": "Zuccini",
              "menge": 250,
              "einheit": "g"
            },
          {
              "name": "Zwiebel",
              "menge": 1,
              "einheit": "Stück"
            },
          {
              "name": "Knoblauch",
              "menge": 1,
              "einheit": "Stück"
            },
          {
              "name": "Tomaten",
              "menge": 2,
              "einheit": "Stück"
            },
          {
              "name": "Vanilleschoten",
              "menge": 1,
              "einheit": "Stück"
            },
          {
              "name": "Essig",
              "menge": 2,
              "einheit": "EL"
            },
          {
              "name": "Öl zum Anbraten",
              "menge": 1,
              "einheit": ""
            }
        ]
    }
  ]
}
