{
  "rezepte": [
  {
    "name": "So Tasty Curry Huhn",
    "teaser": "Asiatisch, exotisch!",
    "tags": ["international", "warm"],
    "kategorien": ["Fleischgericht"],
    "bildname": "curryhuhn",
    "portionen": 2,
    "zutaten": [
        {
            "name": "Hähnchenbrust-Filet (Huhn)",
            "menge": 250,
            "einheit": "g"
          },
        {
            "name": "Eierspätzle",
            "menge": 4,
            "einheit": "Stück"
          },
        {
            "name": "China-Gemüse aus dem Glas",
            "menge": 150,
            "einheit": "g"
          },
        {
            "name": "Eier",
            "menge": 2,
            "einheit": "Stück"
          },
          {
              "name": "Öl zum Anbraten",
              "menge": 1,
              "einheit": "EL"
            }
      ],
  "einleitung"  : "Okay Eierspätzle sind nicht wirklich asiatisch, die restlichen Zutaten aber schon eher. Curry wird meist mit Indien verbunden und China-Gemüse, wie der Name schon sagt, mit China.",
  "zubereitungstext"  : "Huhn in kleine Stücke schneiden und in heißem Öl anbraten. Eierspätzle mit in die Pfanne geben. China-Gemüse inklusive Flüssigkeit über das Hähnchen und die Spätzle gießen. Eier mit den restlichen Zutaten in der Pfanne verquirlen. Curry-Gewürz in die Pfanne streuen und alles noch einmal scharf anbraten.",
  "tipp"  : "Je nach Lust und Laune kann auch ein etwas schärferes Curry-Gewürz benutzt werden. Wir bevorzugen hier beispielsweise ein scharfes Curry mit Habanero.",
  "naehrwerte":
  {
    "Eiweiß"  : 10,
    "Fett"  : 10,
    "Kohlenhydrate" : 10
  }
  },
  {
    "name": "So Tasty Currywurst mit Kartoffelecken",
    "teaser": "Lecker Schmecker",
    "tags": ["einfach", "schnell", "warm"],
    "kategorien": ["Fastfood","Fleischgericht"],
    "bildname": "currywurst",
    "portionen": 1,
    "zutaten": [
        {
            "name": "Bockwürstchen",
            "menge": 3,
            "einheit": "Stück"
          },
        {
            "name": "Kartoffelecken",
            "menge": 200,
            "einheit": "g"
          },
        {
            "name": "Remoulade",
            "menge": 1,
            "einheit": ""
          },
        {
            "name": "Ketchup",
            "menge": 1,
            "einheit": ""
          },
          {
              "name": "Öl zum Anbraten",
              "menge": 1,
              "einheit": ""
            }
      ],
      "einleitung"  : "Im nahe gelegenen Discounter hat So Tasty neulich im Tiefkühlfach Potatoe Wedges (auch: Kartoffelecken) gefunden. Also haben Sie sie gleich als Beilage für ihre Currywurst verwendet. Besonders mit der Remoulade schmecken die Wedges sehr lecker. (Für einen Studenten gehört es sich ja auch nicht, immer gesund zu essen ^_^)",
      "zubereitungstext"  : "Potatoe Wedges im Ofen nach Packungsangabe backen, Bockwürstchen in zwei Hälften schneiden und quer leicht einschneiden, Wursthälften in der Pfanne schön anbraten. Das Ganze auf den Teller geben und mit Curry würzen, Potatoe Wedges dazu und die Soßen darüber.",
      "tipp"  : "Nicht jeden Tag essen, sonst wird man schnell kugelrund. ;)",
      "naehrwerte":
      {
        "Eiweiß"  : 5,
        "Fett"  : 50,
        "Kohlenhydrate" : 10
      }
  },
  {
    "name": "So Tasty Ei in der Frikadelle Burger",
    "teaser": "Der etwas andere Burger",
    "tags": ["einfach", "schnell", "warm"],
    "kategorien": ["Fastfood","Fleischgericht"],
    "bildname": "eiburger",
    "portionen": 1,
    "zutaten": [
        {
            "name": "Hackfleisch",
            "menge": 250,
            "einheit": "g"
          },
        {
            "name": "Zwiebel",
            "menge": 1,
            "einheit": "Stück"
          },
        {
            "name": "Knoblauch",
            "menge": 1,
            "einheit": "Zehe"
          },
        {
            "name": "Eier",
            "menge": 3,
            "einheit": "Stück"
          },
          {
              "name": "Brötchen",
              "menge": 3,
              "einheit": "Stück"
            },
            {
                "name": "Öl zum Anbraten",
                "menge": 1,
                "einheit": ""
              }
      ],
    "einleitung"  : "In einem Picdump hat So Tasty irgendwann ein ähnliches Bild von diesem tollen Ei im Burgerfleisch entdeckt. Sowas mussten wir natürlich auch mal ausprobieren. Auf jeden Fall sollte man einiges an Zeit und Geduld mitbringen, denn ein schnelles Rezept ist das eher weniger. Das schwierigste ist übrigens, dass das Ei im Burger noch weich bleibt. Bei unserem jetzigen ersten Burger-Test hat das auch noch nicht so ganz geklappt.",
    "zubereitungstext"  : "Hackfleisch auftauen lassen, falls gefroren. Zwiebel in kleine Stückchen schneiden. Knoblauch ebenfalls zerstückeln. Hackfleisch mit den Zwiebel- und Knoblauch-Stücken vermischen und Würzen. Bulette aus dem Hackfleisch-Gemisch formen. Glas benutzen um ein Loch aus der Bulette zu stanzen. Ring mit dem ausgestanzten Hackfleisch etwas vergrößern. Öl in Pfanne geben und warm werden lassen. Hackfleischring mit Pfannenwender irgendwie heil in die Pfanne bringen. Ei nach einiger Zeit aufschlagen und in das Loch geben. Anbraten bei mittlerer Stufe (sonst wirds sehr schwarz). Wenden wenn das Eiweiß bis fast oben hin schon weiß geworden ist. Schwierig ist es jetzt, den richtigen Zeitpunkt zu erwischen um das ganze aus der Pfanne zu nehmen. Denn das Ei sollte ja innen noch weich sein.",
    "tipp"  : "Am besten man macht es nach Gefühl, wann man den Ring umdreht. Vielleicht sollte man auch nicht das komplette Ei in das Loch geben. Wer sonst noch Tipps hat darf sie gerne in den Kommentaren geben. ;) Achja: Man kann auch noch eine Scheibe Käse auf den Hackfleischring legen und den Burger mit Salat oder Tomaten dekorieren.",
    "naehrwerte":
    {
      "Eiweiß"  : 30,
      "Fett"  : 30,
      "Kohlenhydrate" : 5
    }
  },
  {
    "name": "So Tasty Garnelensalat",
    "teaser": "Einfach nur exquisit!",
    "tags": ["einfach", "schnell", "kalt"],
    "kategorien": ["Vegetarisch"],
    "bildname": "garnelensalat",
    "portionen": 2,
    "zutaten": [
        {
            "name": "Garnelensalat",
            "menge": 150,
            "einheit": "g"
          },
        {
            "name": "Salat",
            "menge": 150,
            "einheit": "g"
          },
        {
            "name": "Käse",
            "menge": 2,
            "einheit": "Scheiben"
          },
          {
              "name": "Dressing, Öl und Essig oder Fertigdressing",
              "menge": 1,
              "einheit": ""
            }
      ],
    "einleitung"  : "Bei großer Hitze hat man meiste keine Lust auf üppige oder warme Rezepte. Als Alternative bietet sich dieser leichte und vor allem schnell zuzubereitende Salat mit Garnelen bestens.",
    "zubereitungstext"  : "Salat klein Schneiden und in Schüssel geben. Käse in kleine Rechtecke schneiden und ab damit in die Schüssel. Garnelen werden ebenfalls mit in die Schüssel gestreut. Dressing mischen und mit allen Salat-Zutaten vermengen.",
    "tipp"  : "Für die fauleren Studenten oder für Studenten mit wenig Zeit eignen sich außerdem bereits geschnittener Salat und Fertigdressing.",
    "naehrwerte":
    {
      "Eiweiß"  : 5,
      "Fett"  : 10,
      "Kohlenhydrate" : 15
    }
  },
  {
    "name": "So Tasty Selbstgemachte Kartoffelecken mit Grillgemüse",
    "teaser": "Knusprig, gut!",
    "tags": ["selbstgemacht", "warm"],
    "kategorien": ["Vegetarisch"],
    "bildname": "kartoffelecken",
    "portionen": 2,
    "zutaten": [
        {
            "name": "Kartoffeln",
            "menge": 4,
            "einheit": "Stück"
          },
        {
            "name": "Zucchini",
            "menge": 1,
            "einheit": "Stück"
          },
        {
            "name": "Paprika",
            "menge": 3,
            "einheit": "Stück"
          },
        {
            "name": "Zwiebel",
            "menge": 1,
            "einheit": "Stück"
          },
          {
              "name": "Weitere Gewürze, Cheyenne-Pfeffer, Kräuter der Provence",
              "menge": 1,
              "einheit": ""
            },
          {
              "name": "Öl zum Anbraten",
              "menge": 1,
              "einheit": ""
            }
      ],
    "einleitung"  : "Potatoe Wedges, Kartoffelecken, Kartoffelspalten - egal wie man sie nennt, sie schmecken lecker. Aber statt sie einfach aus dem Tiefkühlregal zu nehmen, machen wir sie heute einfach mal selbst. Dazu gibt es gesundes Gemüse.",
    "zubereitungstext"  : "Backofen auf 200° C einschalten (Umluft 180° C). Kartoffeln waschen und trocknen, halbieren, vierteln (wenn nötig achteln), so dass halbwegs gleichgroße Spalten entstehen. Kartoffelspalten in den Plastikbeutel stecken. Öl einen kleinen Schuss zu den Kartoffeln in den Beutel geben. Gewürze dazu geben, Beutel so gut wie möglich verschließen und kräftig schütteln bis sich Öl und Gewürze schön verteilt haben. Inhalt des Beutels auf das Backblech geben, evtl. Backpapier darunter legen und ab in den Ofen. Gemüse waschen, Paprika achteln und Kerngehäuse und Strunk rausschneiden. Zucchino in Scheiben oder Stifte schneiden. Zwiebel achteln. Gemüsestückchen in den Beutel, in dem noch das Gewürz-Kräuter-Öl klebt und ebenfalls durchschütteln. Gemüse nach 15 Minuten zu den Kartoffelecken in den Ofen (und schön verteilen). Fertig ist alles wenn die Kartoffeln außen knusprig und innen weich sind (oder das Gemüse anfängt schwarz werden).",
    "tipp"  : "Zum Dippen bzw. als Sauce eignet sich zum Beispiel 1 Becher Creme-Fraiche mit Kräutern oder selbst gemachtes Zaziki.",
    "naehrwerte":
    {
      "Eiweiß"  : 5,
      "Fett"  : 5,
      "Kohlenhydrate" : 0
    }
  },
  {
    "name": "So Tasty Leberkäse mit Spiegelei Deluxe",
    "teaser": "Der besondere Gaumenschmaus",
    "tags": ["einfach", "schnell", "warm"],
    "kategorien": ["Fastfood","Fleischgericht"],
    "bildname": "leberkaese",
    "portionen": 2,
    "zutaten": [
        {
            "name": "Leberkäse",
            "menge": 1,
            "einheit": "Scheibe"
          },
        {
            "name": "Ei",
            "menge": 1,
            "einheit": "Stück"
          },
          {
              "name": "Zwiebel",
              "menge": 1,
              "einheit": "Stück"
            },
        {
            "name": "Toast",
            "menge": 1,
            "einheit": "Scheibe"
          },
        {
            "name": "Käse",
            "menge": 1,
            "einheit": "Scheibe"
          },
          {
              "name": "Öl zum Anbraten",
              "menge": 1,
              "einheit": ""
            }
      ],
    "einleitung"  : "Die Standard-Version des Leberkäse mit Spiegelei ist nicht nur für Studenten ein Gaumenschmaus. Und in der Deluxe Ausführung übertrifft er diese sogar noch - insofern man Zwiebeln mag. Wer keine Zwiebeln mag, sollte sich aber trotzdem noch den Tipp weiter unten durchlesen.",
    "zubereitungstext"  : "Etwas Öl in die Pfanne geben und erhitzen. Toast im Toaster toasten ;). Zwiebel in kleine Stückchen schneiden. Scheiben des Leberkäse und die Zwiebeln in der Pfanne anbraten. Ei aufschlagen und in die Pfanne gleiten lassen (= Spiegelei). Käse, dann den Leberkäse, die Zwiebeln und anschließend das Spiegelei auf den Toast legen.",
    "tipp"  : "Man kann die Käsescheibe auch bereits in der Pfanne auf den Leberkäse legen (wenn der Leberkäse schon fertig angebraten ist). Dann wendet man die Scheibe noch einmal und lässt den Käse für einige Sekunden schön anschmelzen.",
    "naehrwerte":
    {
      "Eiweiß"  : 50,
      "Fett"  : 50,
      "Kohlenhydrate" : 10
    }
  },
  {
    "name": "So Tasty Nutella Liqör",
    "teaser": "Aphrodisierend, aromatisch..",
    "tags": ["selbstgemacht","viel Zeit", "warm"],
    "kategorien": ["Dessert"],
    "bildname": "nutellaliqoer",
    "portionen": 6,
    "zutaten": [
        {
            "name": "Nutella",
            "menge": 400,
            "einheit": "g"
          },
        {
            "name": "Brauner Rum 40%",
            "menge": 700,
            "einheit": "ml"
          },
        {
            "name": "Puderzucker",
            "menge": 150,
            "einheit": "g"
          },
        {
            "name": "Schlagsahne",
            "menge": 400,
            "einheit": "ml"
          },
        {
            "name": "Vanilleschoten",
            "menge": 1,
            "einheit": "Stück"
          },
        {
            "name": "Instantkaffee-Pulver",
            "menge": 3,
            "einheit": "EL"
          },
        {
            "name": "Zimt",
            "menge": 1,
            "einheit": "TL"
          }
      ],
    "einleitung"  : "Immer wenn du deine Oma besuchst, gibt sie dir Nutella (oder eine ähnliche Nougat-Creme) mit? Die Nutella-Gläser stapeln sich schon im Kühlschrank deiner Studentenbude?  Dann solltest du dieses Rezept für einen leckeren Nutella-Likör - dessen Ähnlichkeit zu Baileys nicht zu bestreiten ist - ausprobieren. Mit einem Schuss Zimt eignet er sich auch super als Glühweinersatz zu Weihnachten  (zum Beispiel zu unserem Weihnachtsmenü für Studenten).",
    "zubereitungstext"  : "Vanilleschoten mit dem Messer aufschneiden und das Mark heraus schaben. Nutella erwärmen, damit es besser aus dem Glas rutscht (z.B. in der Mikrowelle oder im Wasserbad). Kaffeepulver in 3-4 EL heißem Wasser auflösen (pro EL Kaffeepulver 1 EL Wasser). Nutella mit dem Rum, Vanillemark, aufgelöstem Kaffeepulver und dem Puderzucker gut vermischen (im Mixer). Mischung einige Stunden oder einfach über Nacht kalt stellen, damit der Rum gut in das Nutella zieht. Sahne nach der Wartezeit leicht steif schlagen und unterrühren. An Weihnachten kann man noch Zimt dazugeben. Das gibt dem Likör zusätzlich einen weihnachtlichen Geschmack. Nutella-Likör kann jetzt mit einem Trichter in Flaschen oder beliebige Gefäße gefüllt werden.",
    "tipp"  : "Vor dem Servieren sollte man den Nutella-Likör (Baileys) einige Zeit in der Wärme stehen lassen und danach gut schütteln. Je mehr Kaffee man für das Rezept benutzt, desto mehr Ähnlichkeit besteht mit Baileys. Statt dem Instantkaffee könnte auch eine kleine Tasse Espresso verwendet werden.",
    "naehrwerte":
    {
      "Eiweiß"  : 10,
      "Fett"  : 0,
      "Kohlenhydrate" : 100
    }
  },
  {
    "name": "So Tasty Einfacher gemischter Salat",
    "teaser": "Basic aber Hip!",
    "tags": ["einfach", "schnell", "kalt"],
    "kategorien": ["Vegetarisch"],
    "bildname": "salat",
    "portionen": 1,
    "zutaten": [
        {
            "name": "Eisbergsalat",
            "menge": 1,
            "einheit": "Stück"
          },
        {
            "name": "Tomaten",
            "menge": 4,
            "einheit": "Stück"
          },
        {
            "name": "Käse",
            "menge": 3,
            "einheit": "Scheiben"
          },
        {
            "name": "Toastbrot",
            "menge": 1,
            "einheit": "Scheibe"
          },
        {
            "name": "Öl und Essig",
            "menge": 1,
            "einheit": ""
          },
        {
            "name": "Salatpulver",
            "menge": 1,
            "einheit": ""
          }
      ],
    "einleitung"  : "Vom Burger braten haben wir noch viel Salat, Tomaten und Zwiebeln übrig. Und was kann man besseres aus Salat machen als Salat!? Man weiß es nicht. Denn irgendwann ist auch dieser kleine Salatkopf einmal geboren worden. Er wurde größer und größer und dachte nicht im Traum daran, einmal als Beilage für einen Burger zu enden. Nun, sei es drum, jetzt kann er ja endlich seiner Bestimmung folgen und ein gemischter Salat werden.",
    "zubereitungstext"  : "Gemüse waschen. Wurst aus der Dose in kleine Stücke schneiden. Käse in Streifen oder Würfel hacken. Salatblätter auseinander zupfen. Tomaten in Scheiben und Zwiebeln in Ringe oder Würfel schneiden. Alle Zutaten mit ein wenig Wasser in die Schüssel geben. Suppenpulver, Öl und Essig darüber träufeln. Würzen, nach Belieben. Alles gut vermischen.",
    "tipp"  : "Das getoastete Brot kann man danach noch in Würfeln über den Salat streuen.",
    "naehrwerte":
    {
      "Eiweiß"  : 0,
      "Fett"  : 0,
      "Kohlenhydrate" : 10
    }
  },
  {
    "name": "So Tasty Schwäbisches Gyros",
    "teaser": "Geschmackvolle, delikate Kombination!",
    "tags": ["international", "warm"],
    "kategorien": ["Fleischgericht"],
    "bildname": "sgyros",
    "portionen": 2,
    "zutaten": [
        {
            "name": "Gyros",
            "menge": 250,
            "einheit": "g"
          },
        {
            "name": "Spätzle",
            "menge": 250,
            "einheit": "g"
          },
        {
            "name": "Puderzucker",
            "menge": 150,
            "einheit": "g"
          },
        {
            "name": "Zwiebel",
            "menge": 1,
            "einheit": "Stück"
          },
        {
            "name": "Öl zum Anbraten",
            "menge": 1,
            "einheit": ""
          }
      ],
      "einleitung"  : "Zwei Kulturen unterschiedlicher sie nicht sein könnten, möchte man meinen. Wir vermischen trotzdem zwei ihrer berühmtesten Gerichte miteinander: Spätzle aus Schwaben und Gyros aus Griechenland.",
      "zubereitungstext"  : "Gyros aus der Packung in der Pfanne mit etwas Öl anbraten. Zwiebel in kleine Stückchen schneiden. Zwiebel-Stücke mit in die Pfanne geben. Spätzle nach einigen Minuten auch mit in der Pfanne anbraten.",
      "tipp"  : "Man könnte versuchen noch Käse oder natürlich Zaziki dazu zu geben.",
      "naehrwerte":
      {
        "Eiweiß"  : 20,
        "Fett"  : 45,
        "Kohlenhydrate" : 10
      }
      },
  {
    "name": "So Tasty Spaghetti Carbonara",
    "teaser": "italienisch, deliziös!",
    "tags": ["international", "warm"],
    "kategorien": ["Nudeln", "Fleischgericht"],
    "bildname": "spaghetti",
    "portionen": 2,
    "zutaten": [
        {
            "name": "Spaghetti",
            "menge": 200,
            "einheit": "g"
          },
        {
            "name": "roher Schinken",
            "menge": 3,
            "einheit": "Scheiben"
          },
        {
            "name": "Zwiebel",
            "menge": 1,
            "einheit": "Stück"
          },
        {
            "name": "Schlagsahne",
            "menge": 250,
            "einheit": "ml"
          },
        {
            "name": "Käse",
            "menge": 2,
            "einheit": "Scheiben"
          },
        {
            "name": "Eier",
            "menge": 3,
            "einheit": "Stück"
          },
        {
            "name": "Öl zum Anbraten",
            "menge": 1,
            "einheit": ""
          }
      ],
    "einleitung"  : "Die Carbonara-Soße ist zwar nicht die kalorienärmste, aber dafür ist sie ein absoluter Genuss für die Geschmacksnerven.wie Schnittlauch, Basilikum oder Majoran verfeinern.",
    "zubereitungstext"  : "Nudeln in gesalzenem Wasser im Topf kochen. Speck, Zwiebeln und Knoblauchzehe währenddessen in Würfel schneiden. Käse in kleine Würfel schneiden oder reiben. Eier im Suppenteller verquirlen und Käse dazu geben. Sobald die Spaghetti fertig sind, Topf vom Herd nehmen und die Pfanne darauf stellen. Spaghetti nun möglichst warm halten. Etwas Öl in die Pfanne geben und erhitzen. Speck, Zwiebeln und Knoblauch in der Pfanne anbraten. Schlagsahne nach kurzer Zeit dazu geben und aufkochen lassen. Hitze zurück drehen und die abgetropften Nudeln in die Pfanne geben. Eier + Käse in die Nudeln einrühren (Wichtig: Danach nicht mehr aufkochen lassen!). Noch eine Weile auf der ausgeschalteten Herdplatte stocken lassen. Wer auf seinem Herd so viel Platz hat, dass ein Nudeltopf und eine Pfanne darauf passen, der kann natürlich gleichzeitig die Nudeln kochen und den Speck anbraten.",
    "tipp"  : "Einfach genießen",
    "naehrwerte":
    {
      "Eiweiß"  : 5,
      "Fett"  : 5,
      "Kohlenhydrate" : 5
    }
  },
  {
    "name": "So Tasty Wurstsalat zu Knäckebrot",
    "teaser": "Der knackfrische",
    "tags": ["einfach","schnell", "kalt"],
    "kategorien": ["Fleischgericht"],
    "bildname": "wurstsalat",
    "portionen": 2,
    "zutaten": [
        {
            "name": "Fleischwurst",
            "menge": 125,
            "einheit": "g"
          },
        {
            "name": "Salatgurke",
            "menge": 1,
            "einheit": "Stück"
          },
        {
            "name": "Lauchzwiebeln",
            "menge": 50,
            "einheit": "g"
          },
        {
            "name": "Zwiebel",
            "menge": 1,
            "einheit": "Stück"
          },
        {
            "name": "Tomate",
            "menge": 1,
            "einheit": "Stück"
          },
        {
            "name": "Knäckebrot",
            "menge": 3,
            "einheit": "Stück"
          },
        {
            "name": "Frischkäse",
            "menge": 75,
            "einheit": "g"
          }
      ],
    "einleitung"  : "Diese mit Wurstsalat belegten Knäckebrote eignen sich nicht nur zum Abendessen für euch selbst. Man kann sie auch servieren, wenn man Kommilitonen oder andere Freunde zu Gast hat. Dazu bereit man einfach die Knäckebrote mit Frischkäse und Kräutern vor und stellt die Schüssel mit dem Wurstsalat daneben.",

    "zubereitungstext"  : "Fleischwurst enthäuten und in Scheiben schneiden. Gurke in kleine Würfel schneiden. (Je nach Belieben kann die Gurke auch vorher geschält werden.) Lauchzwiebeln waschen, die Wurzeln und unansehnlichen Teile entfernen und anschließend in dünne Ringe schneiden. Tomate waschen und vierteln, um sie besser von den Kernen befreien zu können. Dann werden auch die Tomaten geviertelt. Zwiebel schälen und ebenfalls würfeln. Essig mit dem Öl in der Schüssel vermengen und mit Salz und Pfeffer würzen. Alle Zutaten in der Schüssel vermischen. Knäckebrot-Scheiben mit dem Frischkäse bestreichen und mit dem Wurstsalat belegen.",

    "tipp"  : "Dieser Wurstsalat lässt sich noch mit beliebigen Kräutern wie Schnittlauch, Basilikum oder Majoran verfeinern.",
    "naehrwerte":
    {
      "Eiweiß"  : 10,
      "Fett"  : 15,
      "Kohlenhydrate" : 10
    }
  },
  {
    "name": "So Tasty Zucchini als Spaghetti-Ersatz",
    "teaser": "Der vegane Konkurrent",
    "tags": ["einfach","schnell", "warm"],
    "kategorien": ["Vegetarisch"],
    "bildname": "zucchini",
    "portionen": 2,
    "zutaten": [
        {
            "name": "Zuccini",
            "menge": 250,
            "einheit": "g"
          },
        {
            "name": "Zwiebel",
            "menge": 1,
            "einheit": "Stück"
          },
        {
            "name": "Knoblauch",
            "menge": 1,
            "einheit": "Stück"
          },
        {
            "name": "Tomaten",
            "menge": 2,
            "einheit": "Stück"
          },
        {
            "name": "Vanilleschoten",
            "menge": 1,
            "einheit": "Stück"
          },
        {
            "name": "Essig",
            "menge": 2,
            "einheit": "EL"
          },
        {
            "name": "Öl zum Anbraten",
            "menge": 1,
            "einheit": ""
          }
      ],
  "einleitung"  : "  Als Spaghetti-Ersatz kommen in diesem Gericht Zucchini zum Einsatz. Tomaten, Zwiebeln und Knoblauch runden das Geschmackserlebnis ab. Eine gute Mischung aus echten Spaghetti und den Zucchini-Spaghetti wäre auch nicht verkehrt. Denn Kohlenhydrate sind wichtige Energie-Lieferanten für unsere Studenten-Gehirne.",

  "zubereitungstext"  : "Zucchini waschen, längs halbieren und in dünne Streifen schneiden. Zucchini-Streifen anschließend salzen und in einem Sieb abtropfen lassen. Tomaten je nach Wunsch in Achtel oder Viertel schneiden. Pfanne mit dem (Oliven-)Öl aufheizen. Zwiebeln in der Pfanne anbraten bis sie braun werden. Tomaten und Knoblauch hinzugeben und einige Minuten bei mittlerer Hitze ziehen lassen. Zucchini-Streifen (die jetzt gut entwässert sein sollten) zu guter Letzt mit in die Pfanne geben und noch ca. 3 Minuten dünsten. (Rotwein-)Essig, Salz und Pfeffer nutzen, um dem Gericht die restliche Würze zu verleihen.",

  "tipp"  : "Wer auf seine Portion Kohlenhydrate nicht verzichten möchte, der kann noch etwa 200g vegane Spaghetti hinzugeben und die Menge an Zucchini reduzieren.",
  "naehrwerte":
  {
    "Eiweiß"  : 0,
    "Fett"  : 0,
    "Kohlenhydrate" : 10
  }
  }
]
}
